EDGE,EDGE,EDGE,EDGE,EDGE,EDGE,EDGE,EDGE,EDGE,EDGE,EDGE,EDGE,EDGE,EDGE,EDGE,EDGE,EDGE,EDGE,EDGE,EDGE,EDGE,EDGE,EDGE,EDGE,EDGE,EDGE,EDGE,EDGE,EDGE,EDGE,EDGE,EDGE,EDGE,EDGE,EDGE,EDGE,EDGE,EDGE,EDGE,EDGE,EDGE,EDGE,EDGE,EDGE,EDGE,EDGE,EDGE,EDGE,EDGE,EDGE,EDGE,EDGE,EDGE,EDGE,EDGE,EDGE,EDGE,EDGE,EDGE,EDGE,EDGE,EDGE,EDGE,EDGE,EDGE,EDGE,EDGE,EDGE,EDGE,EDGE,EDGE,EDGE,EDGE,EDGE,EDGE,EDGE,EDGE,EDGE,EDGE,EDGE,EDGE,EDGE,EDGE,EDGE,EDGE,EDGE,EDGE,EDGE,EDGE,EDGE,EDGE,EDGE,EDGE,EDGE,EDGE,EDGE,EDGE,EDGE,EDGE,EDGE,
EDGE,EDGE,EDGE,EDGE,EDGE,EDGE,EDGE,EMPT,EMPT,EMPT,EMPT,EMPT,EMPT,EMPT,EMPT,EMPT,EMPT,EMPT,EMPT,EMPT,EMPT,EMPT,EMPT,EMPT,EMPT,EMPT,EMPT,EMPT,EMPT,EMPT,EMPT,EMPT,EMPT,EMPT,EMPT,EMPT,EMPT,EMPT,EMPT,EMPT,EMPT,EMPT,EMPT,EMPT,EMPT,EMPT,EMPT,EMPT,EMPT,EMPT,EMPT,EMPT,EMPT,EMPT,EMPT,EMPT,EMPT,EMPT,EMPT,EMPT,EMPT,EMPT,EMPT,EMPT,EMPT,EMPT,EMPT,EMPT,EMPT,EMPT,EMPT,EMPT,EMPT,EMPT,EMPT,EMPT,EMPT,EMPT,EMPT,EMPT,EMPT,EMPT,EMPT,EMPT,EMPT,EMPT,EMPT,EMPT,EMPT,EMPT,EMPT,EMPT,EMPT,EDGE,EDGE,EDGE,EDGE,EDGE,EDGE,EDGE,
EDGE,EDGE,EDGE,EDGE,EDGE,EDGE,LAVA,EMPT,EMPT,EMPT,EMPT,EMPT,EMPT,EMPT,EMPT,EMPT,EMPT,EMPT,EMPT,EMPT,EMPT,EMPT,EMPT,EMPT,EMPT,EMPT,EMPT,EMPT,EMPT,EMPT,EMPT,EMPT,EMPT,EMPT,EMPT,EMPT,EMPT,EMPT,EMPT,EMPT,EMPT,EMPT,EMPT,EMPT,EMPT,EMPT,EMPT,EMPT,EMPT,EMPT,EMPT,EMPT,EMPT,EMPT,EMPT,EMPT,EMPT,EMPT,EMPT,EMPT,EMPT,EMPT,EMPT,EMPT,EMPT,EMPT,EMPT,EMPT,EMPT,EMPT,EMPT,EMPT,EMPT,EMPT,EMPT,EMPT,EMPT,EMPT,EMPT,EMPT,EMPT,EMPT,EMPT,EMPT,EMPT,EMPT,EMPT,EMPT,EMPT,EMPT,EMPT,EMPT,EMPT,EMPT,EDGE,EDGE,EDGE,EDGE,EDGE,EDGE,
EDGE,EDGE,EDGE,EDGE,EDGE,LAVA,EMPT,EMPT,EMPT,EMPT,EMPT,EMPT,EMPT,EMPT,EMPT,EMPT,EMPT,EMPT,EMPT,EMPT,EMPT,EMPT,EMPT,EMPT,EMPT,EMPT,EMPT,EMPT,EMPT,EMPT,EMPT,EMPT,EMPT,EMPT,EMPT,EMPT,EMPT,EMPT,EMPT,EMPT,EMPT,EMPT,EMPT,EMPT,EMPT,EMPT,EMPT,EMPT,EMPT,EMPT,EMPT,EMPT,EMPT,EMPT,EMPT,EMPT,EMPT,EMPT,EMPT,EMPT,EMPT,EMPT,EMPT,EMPT,EMPT,EMPT,EMPT,EMPT,EMPT,EMPT,EMPT,EMPT,EMPT,EMPT,EMPT,EMPT,EMPT,EMPT,EMPT,EMPT,EMPT,EMPT,EMPT,EMPT,EMPT,EMPT,EMPT,EMPT,EMPT,EMPT,EMPT,EMPT,EMPT,EMPT,EMPT,EDGE,EDGE,EDGE,EDGE,EDGE,
EDGE,EDGE,EDGE,EDGE,LAVA,EMPT,XFLY,EMPT,EMPT,EMPT,EMPT,EMPT,EMPT,EMPT,EMPT,EMPT,EMPT,EMPT,EMPT,EMPT,EMPT,EMPT,EMPT,EMPT,EMPT,EMPT,EMPT,EMPT,EMPT,EMPT,EMPT,EMPT,EMPT,EMPT,EMPT,EMPT,EMPT,EMPT,EMPT,EMPT,EMPT,EMPT,EMPT,EMPT,EMPT,EMPT,EMPT,EMPT,EMPT,EMPT,EMPT,EMPT,EMPT,EMPT,EMPT,EMPT,EMPT,EMPT,EMPT,EMPT,EMPT,EMPT,EMPT,EMPT,EMPT,EMPT,EMPT,EMPT,EMPT,EMPT,EMPT,EMPT,EMPT,EMPT,EMPT,EMPT,EMPT,EMPT,EMPT,EMPT,EMPT,EMPT,EMPT,EMPT,EMPT,EMPT,EMPT,EMPT,EMPT,EMPT,EMPT,EMPT,EMPT,EMPT,EMPT,END!,EDGE,EDGE,EDGE,EDGE,
EDGE,EDGE,EDGE,EDGE,EMPT,EMPT,EMPT,EMPT,EMPT,EMPT,EMPT,EMPT,EMPT,EMPT,EMPT,EMPT,EMPT,EMPT,EMPT,EMPT,EMPT,EMPT,EMPT,EMPT,EMPT,EMPT,EMPT,EMPT,EMPT,EMPT,EMPT,EMPT,EMPT,EMPT,EMPT,EMPT,EMPT,EMPT,EMPT,EMPT,EMPT,EMPT,EMPT,GRND,EMPT,EMPT,EMPT,EMPT,EMPT,EMPT,EMPT,EMPT,EMPT,EMPT,EMPT,EMPT,EMPT,EMPT,EMPT,EMPT,EMPT,EMPT,EMPT,EMPT,EMPT,EMPT,EMPT,EMPT,EMPT,EMPT,EMPT,EMPT,EMPT,EMPT,EMPT,EMPT,EMPT,EMPT,EMPT,EMPT,EMPT,EMPT,EMPT,EMPT,EMPT,EMPT,EMPT,EMPT,EMPT,EMPT,EMPT,EMPT,EMPT,EMPT,EMPT,END!,EDGE,EDGE,EDGE,EDGE,
EDGE,EDGE,EDGE,EDGE,EMPT,EMPT,EMPT,EMPT,EMPT,EMPT,EMPT,EMPT,EMPT,EMPT,EMPT,EMPT,EMPT,EMPT,EMPT,EMPT,EMPT,EMPT,EMPT,EMPT,EMPT,EMPT,EMPT,EMPT,EMPT,EMPT,EMPT,EMPT,EMPT,EMPT,EMPT,EMPT,EMPT,EMPT,EMPT,EMPT,GRND,EMPT,GRND,LAVA,GRND,EMPT,EMPT,EMPT,EMPT,EMPT,EMPT,EMPT,EMPT,EMPT,EMPT,EMPT,EMPT,EMPT,EMPT,EMPT,EMPT,EMPT,EMPT,EMPT,EMPT,EMPT,EMPT,EMPT,EMPT,EMPT,EMPT,EMPT,EMPT,EMPT,EMPT,EMPT,EMPT,EMPT,EMPT,EMPT,EMPT,EMPT,EMPT,EMPT,EMPT,EMPT,EMPT,EMPT,EMPT,EMPT,EMPT,EMPT,EMPT,EMPT,EMPT,END!,EDGE,EDGE,EDGE,EDGE,
EDGE,EDGE,EDGE,EDGE,EMPT,EMPT,EMPT,EMPT,EMPT,EMPT,EMPT,EMPT,EMPT,EMPT,EMPT,EMPT,EMPT,EMPT,EMPT,EMPT,EMPT,EMPT,EMPT,EMPT,EMPT,EMPT,EMPT,EMPT,EMPT,EMPT,EMPT,EMPT,EMPT,EMPT,EMPT,EMPT,EMPT,EMPT,EMPT,GRND,LAVA,LAVA,LAVA,LAVA,LAVA,GRND,EMPT,EMPT,EMPT,EMPT,EMPT,EMPT,EMPT,EMPT,EMPT,EMPT,EMPT,EMPT,EMPT,EMPT,EMPT,EMPT,EMPT,EMPT,EMPT,EMPT,EMPT,EMPT,EMPT,EMPT,EMPT,EMPT,EMPT,EMPT,EMPT,EMPT,EMPT,EMPT,EMPT,EMPT,EMPT,EMPT,EMPT,EMPT,EMPT,EMPT,EMPT,EMPT,EMPT,EMPT,EMPT,EMPT,EMPT,EMPT,EMPT,END!,EDGE,EDGE,EDGE,EDGE,
EDGE,EDGE,EDGE,EDGE,EMPT,EMPT,EMPT,EMPT,EMPT,EMPT,EMPT,EMPT,EMPT,EMPT,EMPT,EMPT,EMPT,EMPT,EMPT,EMPT,EMPT,EMPT,EMPT,EMPT,EMPT,EMPT,EMPT,EMPT,EMPT,EMPT,EMPT,EMPT,EMPT,EMPT,EMPT,EMPT,EMPT,EMPT,GRND,LAVA,GRND,LAVA,LAVA,LAVA,LAVA,GRND,EMPT,EMPT,EMPT,EMPT,EMPT,EMPT,EMPT,EMPT,EMPT,EMPT,EMPT,EMPT,EMPT,EMPT,EMPT,EMPT,EMPT,EMPT,EMPT,EMPT,EMPT,EMPT,EMPT,EMPT,EMPT,EMPT,EMPT,EMPT,EMPT,EMPT,EMPT,EMPT,EMPT,EMPT,EMPT,EMPT,EMPT,EMPT,EMPT,EMPT,EMPT,EMPT,EMPT,EMPT,EMPT,EMPT,EMPT,EMPT,EMPT,END!,EDGE,EDGE,EDGE,EDGE,
EDGE,EDGE,EDGE,EDGE,EDGE,EMPT,EMPT,EMPT,EMPT,EMPT,EMPT,EMPT,EMPT,EMPT,EMPT,EMPT,EMPT,EMPT,EMPT,EMPT,EMPT,EMPT,EMPT,EMPT,EMPT,EMPT,EMPT,EMPT,EMPT,EMPT,EMPT,EMPT,EMPT,EMPT,EMPT,EMPT,EMPT,GRND,GRND,LAVA,LAVA,LAVA,LAVA,GRND,LAVA,LAVA,LAVA,GRND,EMPT,EMPT,EMPT,EMPT,EMPT,EMPT,EMPT,EMPT,EMPT,EMPT,EMPT,EMPT,EMPT,EMPT,EMPT,EMPT,EMPT,EMPT,EMPT,EMPT,EMPT,EMPT,EMPT,EMPT,EMPT,EMPT,EMPT,EMPT,EMPT,EMPT,EMPT,EMPT,EMPT,EMPT,EMPT,EMPT,EMPT,EMPT,EMPT,EMPT,EMPT,EMPT,EMPT,EMPT,EMPT,EMPT,EMPT,EDGE,EDGE,EDGE,EDGE,EDGE,
EDGE,EDGE,EDGE,EDGE,EDGE,EDGE,EMPT,EMPT,EMPT,EMPT,EMPT,EMPT,EMPT,EMPT,EMPT,EMPT,EMPT,EMPT,EMPT,EMPT,EMPT,EMPT,EMPT,EMPT,EMPT,EMPT,EMPT,EMPT,EMPT,EMPT,EMPT,EMPT,EMPT,EMPT,EMPT,EMPT,GRND,LAVA,GRND,LAVA,LAVA,GRND,LAVA,LAVA,LAVA,LAVA,GRND,LAVA,LAVA,GRND,EMPT,EMPT,EMPT,EMPT,EMPT,EMPT,EMPT,EMPT,EMPT,EMPT,EMPT,EMPT,EMPT,EMPT,EMPT,EMPT,EMPT,EMPT,EMPT,EMPT,EMPT,EMPT,EMPT,EMPT,EMPT,EMPT,EMPT,EMPT,EMPT,EMPT,EMPT,EMPT,EMPT,EMPT,EMPT,EMPT,EMPT,EMPT,EMPT,EMPT,EMPT,EMPT,EMPT,EMPT,EDGE,EDGE,EDGE,EDGE,EDGE,EDGE,
EDGE,EDGE,EDGE,EDGE,EDGE,EDGE,EDGE,MRIO,EMPT,EMPT,EMPT,EMPT,EMPT,EMPT,EMPT,EMPT,EMPT,EMPT,EMPT,EMPT,GRND,EMPT,EMPT,EMPT,XGND,EMPT,EMPT,GRND,EMPT,EMPT,EMPT,EMPT,EMPT,EMPT,EMPT,GRND,LAVA,LAVA,LAVA,LAVA,GRND,GRND,LAVA,LAVA,GRND,GRND,LAVA,LAVA,GRND,GRND,GRND,EMPT,EMPT,EMPT,EMPT,EMPT,EMPT,EMPT,EMPT,EMPT,EMPT,EMPT,EMPT,EMPT,EMPT,EMPT,EMPT,EMPT,EMPT,EMPT,EMPT,EMPT,GRND,EMPT,EMPT,XGND,EMPT,EMPT,EMPT,GRND,EMPT,EMPT,EMPT,XGND,EMPT,EMPT,GRND,EMPT,EMPT,EMPT,EMPT,XGND,EMPT,EDGE,EDGE,EDGE,EDGE,EDGE,EDGE,EDGE,
EDGE,EDGE,EDGE,EDGE,EDGE,EDGE,EDGE,EDGE,GRND,GRND,GRND,GRND,GRND,GRND,GRND,GRND,GRND,GRND,GRND,GRND,GRND,GRND,GRND,GRND,GRND,GRND,GRND,GRND,GRND,GRND,GRND,GRND,GRND,GRND,GRND,LAVA,LAVA,LAVA,GRND,GRND,LAVA,LAVA,GRND,GRND,GRND,LAVA,GRND,GRND,LAVA,LAVA,GRND,GRND,GRND,GRND,GRND,GRND,GRND,GRND,GRND,GRND,GRND,GRND,GRND,GRND,GRND,GRND,GRND,GRND,GRND,GRND,GRND,GRND,GRND,GRND,GRND,GRND,GRND,GRND,GRND,GRND,GRND,GRND,GRND,GRND,GRND,GRND,GRND,GRND,GRND,GRND,GRND,GRND,GRND,EDGE,EDGE,EDGE,EDGE,EDGE,EDGE,EDGE,
EDGE,EDGE,EDGE,EDGE,EDGE,EDGE,EDGE,EDGE,GRND,GRND,GRND,GRND,GRND,GRND,GRND,GRND,GRND,GRND,GRND,GRND,GRND,GRND,GRND,GRND,GRND,GRND,GRND,GRND,GRND,GRND,GRND,GRND,GRND,GRND,GRND,LAVA,GRND,GRND,GRND,LAVA,GRND,LAVA,GRND,GRND,GRND,GRND,LAVA,GRND,GRND,GRND,LAVA,GRND,GRND,GRND,GRND,GRND,GRND,GRND,GRND,GRND,GRND,GRND,GRND,GRND,GRND,GRND,GRND,GRND,GRND,GRND,GRND,GRND,GRND,GRND,GRND,GRND,GRND,GRND,GRND,GRND,GRND,GRND,GRND,GRND,GRND,GRND,GRND,GRND,GRND,GRND,GRND,GRND,GRND,EDGE,EDGE,EDGE,EDGE,EDGE,EDGE,EDGE,
EDGE,EDGE,EDGE,EDGE,EDGE,EDGE,EDGE,EDGE,GRND,GRND,GRND,GRND,GRND,GRND,GRND,GRND,GRND,GRND,GRND,GRND,GRND,GRND,GRND,GRND,GRND,GRND,GRND,GRND,GRND,GRND,GRND,GRND,GRND,GRND,LAVA,GRND,LAVA,GRND,LAVA,LAVA,GRND,LAVA,LAVA,LAVA,LAVA,LAVA,LAVA,LAVA,GRND,LAVA,LAVA,LAVA,GRND,GRND,GRND,GRND,GRND,GRND,GRND,GRND,GRND,GRND,GRND,GRND,GRND,GRND,GRND,GRND,GRND,GRND,GRND,GRND,GRND,GRND,GRND,GRND,GRND,GRND,GRND,GRND,GRND,GRND,GRND,GRND,GRND,GRND,GRND,GRND,GRND,GRND,GRND,GRND,GRND,EDGE,EDGE,EDGE,EDGE,EDGE,EDGE,EDGE,
EDGE,EDGE,EDGE,EDGE,EDGE,EDGE,EDGE,EDGE,LAVA,LAVA,LAVA,LAVA,LAVA,LAVA,LAVA,LAVA,LAVA,LAVA,LAVA,LAVA,LAVA,LAVA,LAVA,LAVA,LAVA,LAVA,LAVA,LAVA,LAVA,LAVA,LAVA,LAVA,LAVA,LAVA,LAVA,LAVA,LAVA,LAVA,LAVA,LAVA,LAVA,LAVA,LAVA,LAVA,LAVA,LAVA,LAVA,LAVA,LAVA,LAVA,LAVA,LAVA,LAVA,LAVA,LAVA,LAVA,LAVA,LAVA,LAVA,LAVA,LAVA,LAVA,LAVA,LAVA,LAVA,LAVA,LAVA,LAVA,LAVA,LAVA,LAVA,LAVA,LAVA,LAVA,LAVA,LAVA,LAVA,LAVA,LAVA,LAVA,LAVA,LAVA,LAVA,LAVA,LAVA,LAVA,LAVA,LAVA,LAVA,LAVA,LAVA,LAVA,LAVA,EDGE,EDGE,EDGE,EDGE,EDGE,EDGE,EDGE,
EDGE,EDGE,EDGE,EDGE,EDGE,EDGE,EDGE,EDGE,EDGE,EDGE,EDGE,EDGE,EDGE,EDGE,EDGE,EDGE,EDGE,EDGE,EDGE,EDGE,EDGE,EDGE,EDGE,EDGE,EDGE,EDGE,EDGE,EDGE,EDGE,EDGE,EDGE,EDGE,EDGE,EDGE,EDGE,EDGE,EDGE,EDGE,EDGE,EDGE,EDGE,EDGE,EDGE,EDGE,EDGE,EDGE,EDGE,EDGE,EDGE,EDGE,EDGE,EDGE,EDGE,EDGE,EDGE,EDGE,EDGE,EDGE,EDGE,EDGE,EDGE,EDGE,EDGE,EDGE,EDGE,EDGE,EDGE,EDGE,EDGE,EDGE,EDGE,EDGE,EDGE,EDGE,EDGE,EDGE,EDGE,EDGE,EDGE,EDGE,EDGE,EDGE,EDGE,EDGE,EDGE,EDGE,EDGE,EDGE,EDGE,EDGE,EDGE,EDGE,EDGE,EDGE,EDGE,EDGE,EDGE,EDGE,EDGE,EDGE